%YAML 1.1
%TAG !u! tag:unity3d.com,2011:
--- !u!114 &11400000
MonoBehaviour:
  m_ObjectHideFlags: 0
  m_CorrespondingSourceObject: {fileID: 0}
  m_PrefabInstance: {fileID: 0}
  m_PrefabAsset: {fileID: 0}
  m_GameObject: {fileID: 0}
  m_Enabled: 1
  m_EditorHideFlags: 0
  m_Script: {fileID: 11500000, guid: 94ae2c3c42178cf419bf0ac0a9cf2d8b, type: 3}
  m_Name: LevelBlockGrass
  m_EditorClassIdentifier: 
  chunkSize: {x: 300, y: 300}
  levelChunks:
  - {fileID: 4471769899053902329, guid: 5d83a8daa521b39418208a3517055cd1, type: 3}
  entryDirection: 2
  exitDirection: 0
